<svg xmlns="http://www.w3.org/2000/svg">
<!--
Font Awesome Free 5.2.0 by @fontawesome - https://fontawesome.com
License - https://fontawesome.com/license (Icons: CC BY 4.0, Fonts: SIL OFL 1.1, Code: MIT License)
-->
  <symbol id="facebook-f" viewBox="0 0 264 512">
    <title id="facebook-f-title">Facebook</title>
    <path d="M76.7 512V283H0v-91h76.7v-71.7C76.7 42.4 124.3 0 193.8 0c33.3 0 61.9 2.5 70.2 3.6V85h-48.2c-37.8 0-45.1 18-45.1 44.3V192H256l-11.7 91h-73.6v229"></path>
  </symbol>
  <symbol id="google-plus-g" viewBox="0 0 640 512">
    <title id="google-plus-g-title">Google Plus</title>
    <path d="M386.061 228.496c1.834 9.692 3.143 19.384 3.143 31.956C389.204 370.205 315.599 448 204.8 448c-106.084 0-192-85.915-192-192s85.916-192 192-192c51.864 0 95.083 18.859 128.611 50.292l-52.126 50.03c-14.145-13.621-39.028-29.599-76.485-29.599-65.484 0-118.92 54.221-118.92 121.277 0 67.056 53.436 121.277 118.92 121.277 75.961 0 104.513-54.745 108.965-82.773H204.8v-66.009h181.261zm185.406 6.437V179.2h-56.001v55.733h-55.733v56.001h55.733v55.733h56.001v-55.733H627.2v-56.001h-55.733z"></path>
  </symbol>
  <symbol id="instagram" viewBox="0 0 448 512">
    <title id="instagram-title">Instagram</title>
    <path d="M224.1 141c-63.6 0-114.9 51.3-114.9 114.9s51.3 114.9 114.9 114.9S339 319.5 339 255.9 287.7 141 224.1 141zm0 189.6c-41.1 0-74.7-33.5-74.7-74.7s33.5-74.7 74.7-74.7 74.7 33.5 74.7 74.7-33.6 74.7-74.7 74.7zm146.4-194.3c0 14.9-12 26.8-26.8 26.8-14.9 0-26.8-12-26.8-26.8s12-26.8 26.8-26.8 26.8 12 26.8 26.8zm76.1 27.2c-1.7-35.9-9.9-67.7-36.2-93.9-26.2-26.2-58-34.4-93.9-36.2-37-2.1-147.9-2.1-184.9 0-35.8 1.7-67.6 9.9-93.9 36.1s-34.4 58-36.2 93.9c-2.1 37-2.1 147.9 0 184.9 1.7 35.9 9.9 67.7 36.2 93.9s58 34.4 93.9 36.2c37 2.1 147.9 2.1 184.9 0 35.9-1.7 67.7-9.9 93.9-36.2 26.2-26.2 34.4-58 36.2-93.9 2.1-37 2.1-147.8 0-184.8zM398.8 388c-7.8 19.6-22.9 34.7-42.6 42.6-29.5 11.7-99.5 9-132.1 9s-102.7 2.6-132.1-9c-19.6-7.8-34.7-22.9-42.6-42.6-11.7-29.5-9-99.5-9-132.1s-2.6-102.7 9-132.1c7.8-19.6 22.9-34.7 42.6-42.6 29.5-11.7 99.5-9 132.1-9s102.7-2.6 132.1 9c19.6 7.8 34.7 22.9 42.6 42.6 11.7 29.5 9 99.5 9 132.1s2.7 102.7-9 132.1z"></path>
  </symbol>
  <symbol id="linkedin-in" viewBox="0 0 448 512">
    <title id="linkedin-in-title">LinkedIn</title>
    <path d="M100.3 480H7.4V180.9h92.9V480zM53.8 140.1C24.1 140.1 0 115.5 0 85.8 0 56.1 24.1 32 53.8 32c29.7 0 53.8 24.1 53.8 53.8 0 29.7-24.1 54.3-53.8 54.3zM448 480h-92.7V334.4c0-34.7-.7-79.2-48.3-79.2-48.3 0-55.7 37.7-55.7 76.7V480h-92.8V180.9h89.1v40.8h1.3c12.4-23.5 42.7-48.3 87.9-48.3 94 0 111.3 61.9 111.3 142.3V480z"></path>
  </symbol>
  <symbol id="rss" viewBox="0 0 448 512">
    <title id="rss-title">RSS</title>
    <path d="M128.081 415.959c0 35.369-28.672 64.041-64.041 64.041S0 451.328 0 415.959s28.672-64.041 64.041-64.041 64.04 28.673 64.04 64.041zm175.66 47.25c-8.354-154.6-132.185-278.587-286.95-286.95C7.656 175.765 0 183.105 0 192.253v48.069c0 8.415 6.49 15.472 14.887 16.018 111.832 7.284 201.473 96.702 208.772 208.772.547 8.397 7.604 14.887 16.018 14.887h48.069c9.149.001 16.489-7.655 15.995-16.79zm144.249.288C439.596 229.677 251.465 40.445 16.503 32.01 7.473 31.686 0 38.981 0 48.016v48.068c0 8.625 6.835 15.645 15.453 15.999 191.179 7.839 344.627 161.316 352.465 352.465.353 8.618 7.373 15.453 15.999 15.453h48.068c9.034-.001 16.329-7.474 16.005-16.504z"></path>
  </symbol>
  <symbol id="snapchat-ghost" viewBox="0 0 512 512">
    <title id="snapchat-ghost-title">Snapchat</title>
    <path d="M510.846 392.673c-5.211 12.157-27.239 21.089-67.36 27.318-2.064 2.786-3.775 14.686-6.507 23.956-1.625 5.566-5.623 8.869-12.128 8.869l-.297-.005c-9.395 0-19.203-4.323-38.852-4.323-26.521 0-35.662 6.043-56.254 20.588-21.832 15.438-42.771 28.764-74.027 27.399-31.646 2.334-58.025-16.908-72.871-27.404-20.714-14.643-29.828-20.582-56.241-20.582-18.864 0-30.736 4.72-38.852 4.72-8.073 0-11.213-4.922-12.422-9.04-2.703-9.189-4.404-21.263-6.523-24.13-20.679-3.209-67.31-11.344-68.498-32.15a10.627 10.627 0 0 1 8.877-11.069c69.583-11.455 100.924-82.901 102.227-85.934.074-.176.155-.344.237-.515 3.713-7.537 4.544-13.849 2.463-18.753-5.05-11.896-26.872-16.164-36.053-19.796-23.715-9.366-27.015-20.128-25.612-27.504 2.437-12.836 21.725-20.735 33.002-15.453 8.919 4.181 16.843 6.297 23.547 6.297 5.022 0 8.212-1.204 9.96-2.171-2.043-35.936-7.101-87.29 5.687-115.969C158.122 21.304 229.705 15.42 250.826 15.42c.944 0 9.141-.089 10.11-.089 52.148 0 102.254 26.78 126.723 81.643 12.777 28.65 7.749 79.792 5.695 116.009 1.582.872 4.357 1.942 8.599 2.139 6.397-.286 13.815-2.389 22.069-6.257 6.085-2.846 14.406-2.461 20.48.058l.029.01c9.476 3.385 15.439 10.215 15.589 17.87.184 9.747-8.522 18.165-25.878 25.018-2.118.835-4.694 1.655-7.434 2.525-9.797 3.106-24.6 7.805-28.616 17.271-2.079 4.904-1.256 11.211 2.46 18.748.087.168.166.342.239.515 1.301 3.03 32.615 74.46 102.23 85.934 6.427 1.058 11.163 7.877 7.725 15.859z"></path>
  </symbol>
  <symbol id="twitter" viewBox="0 0 512 512">
    <title id="twitter-title">Twitter</title>
    <path d="M459.37 151.716c.325 4.548.325 9.097.325 13.645 0 138.72-105.583 298.558-298.558 298.558-59.452 0-114.68-17.219-161.137-47.106 8.447.974 16.568 1.299 25.34 1.299 49.055 0 94.213-16.568 130.274-44.832-46.132-.975-84.792-31.188-98.112-72.772 6.498.974 12.995 1.624 19.818 1.624 9.421 0 18.843-1.3 27.614-3.573-48.081-9.747-84.143-51.98-84.143-102.985v-1.299c13.969 7.797 30.214 12.67 47.431 13.319-28.264-18.843-46.781-51.005-46.781-87.391 0-19.492 5.197-37.36 14.294-52.954 51.655 63.675 129.3 105.258 216.365 109.807-1.624-7.797-2.599-15.918-2.599-24.04 0-57.828 46.782-104.934 104.934-104.934 30.213 0 57.502 12.67 76.67 33.137 23.715-4.548 46.456-13.32 66.599-25.34-7.798 24.366-24.366 44.833-46.132 57.827 21.117-2.273 41.584-8.122 60.426-16.243-14.292 20.791-32.161 39.308-52.628 54.253z"></path>
  </symbol>
  <symbol id="xing" viewBox="0 0 384 512">
    <title id="xing-title">Xing</title>
    <path d="M162.7 210c-1.8 3.3-25.2 44.4-70.1 123.5-4.9 8.3-10.8 12.5-17.7 12.5H9.8c-7.7 0-12.1-7.5-8.5-14.4l69-121.3c.2 0 .2-.1 0-.3l-43.9-75.6c-4.3-7.8.3-14.1 8.5-14.1H100c7.3 0 13.3 4.1 18 12.2l44.7 77.5zM382.6 46.1l-144 253v.3L330.2 466c3.9 7.1.2 14.1-8.5 14.1h-65.2c-7.6 0-13.6-4-18-12.2l-92.4-168.5c3.3-5.8 51.5-90.8 144.8-255.2 4.6-8.1 10.4-12.2 17.5-12.2h65.7c8 0 12.3 6.7 8.5 14.1z"></path>
  </symbol>
  <symbol id="youtube" viewBox="0 0 576 512">
    <title id="youtube-title">YouTube</title>
    <path d="M549.655 124.083c-6.281-23.65-24.787-42.276-48.284-48.597C458.781 64 288 64 288 64S117.22 64 74.629 75.486c-23.497 6.322-42.003 24.947-48.284 48.597-11.412 42.867-11.412 132.305-11.412 132.305s0 89.438 11.412 132.305c6.281 23.65 24.787 41.5 48.284 47.821C117.22 448 288 448 288 448s170.78 0 213.371-11.486c23.497-6.321 42.003-24.171 48.284-47.821 11.412-42.867 11.412-132.305 11.412-132.305s0-89.438-11.412-132.305zm-317.51 213.508V175.185l142.739 81.205-142.739 81.201z"></path>
  </symbol>
  
<!--
more icons
-->
  <symbol id="kununu" viewBox="-4 0 160 160">
    <title>Kununu</title>
		<path d="M104.6,121.9c0-12.1-4.7-23.1-12.4-31.5c7.5-8.3,12.1-19.2,12.1-31.1v-7.9h-0.1c-0.3-1.8-2-3.2-3.9-3.2
				h-24c-2,0-3.6,1.4-3.9,3.2l-0.5,7.9c0,8.5-7.1,15.4-15.8,15.4v0.1h-8.1c-5.6,0-10.9,1-15.9,2.7V8.9C32,6.8,30.2,5,28,5H4
				C1.8,5,0,6.8,0,8.9v145.3c0,2.1,1.8,3.9,4,3.9h24c2.2,0,4-1.8,4-3.9v-32.3h0.2c0-8.5,7.1-15.4,15.8-15.4h8.5
				c8.7,0,15.8,6.9,15.8,15.4v7.9h0.1v24.4c0,2.1,1.8,3.9,4,3.9h24c2.2,0,4-1.8,4-3.9l0.4-24.4V121.9z"/>
		<g transform="scale(0.6), translate(-530 0)">
			<path d="M727.6,13.9c-1.6-1.6-4.3-1.6-5.9,0l-1.6,1.5c-1.6,1.6-1.6,4.2,0,5.8l9.6,9.4c1.3,1.3,1.2,3.4-0.1,4.6
					l-1.2,1.2c-1.3,1.3-3.4,1.3-4.7,0l-9.7-9.4c-5-4.8-5-12.7-0.1-17.6l1.6-1.5c5-4.8,13-4.8,18,0.1l9,8.8l0.6,0.6
					c1.3,1.3,1.3,3.3,0,4.6l-1.2,1.2c-1.3,1.3-3.5,1.4-4.8,0.1L727.6,13.9z"/>
			<path d="M771.5,21.3c1.6-1.6,1.6-4.2,0-5.7l-1.6-1.6c-1.6-1.6-4.3-1.6-5.9,0l-9.6,9.4c-1.3,1.3-3.4,1.2-4.7-0.1
					l-1.2-1.2c-1.3-1.3-1.3-3.3-0.1-4.6l9.6-9.5c5-4.8,13-4.9,18-0.1l1.6,1.5c5,4.9,4.9,12.7,0,17.6l-9,8.8l-0.6,0.6
					c-1.3,1.3-3.4,1.3-4.7,0l-1.2-1.2c-1.3-1.3-1.4-3.4-0.1-4.6L771.5,21.3z"/>
			<path d="M720.1,56.9c-1.6,1.6-1.6,4.2,0,5.8l1.6,1.6c1.6,1.6,4.3,1.6,5.9,0l9.6-9.4c1.3-1.3,3.4-1.2,4.7,0.1
					l1.2,1.2c1.3,1.3,1.3,3.3,0.1,4.6l-9.7,9.4c-5,4.9-13,4.9-18,0.1l-1.6-1.5c-5-4.8-4.9-12.7,0.1-17.5l9-8.8l0.6-0.6
					c1.3-1.3,3.4-1.3,4.7,0l1.2,1.2c1.3,1.3,1.4,3.4,0.1,4.6L720.1,56.9z"/>
			<path d="M763.9,64.1c1.6,1.6,4.3,1.6,5.9,0l1.6-1.5c1.6-1.6,1.7-4.2,0-5.8l-9.6-9.4c-1.3-1.3-1.2-3.3,0.1-4.6
					l1.2-1.2c1.3-1.3,3.4-1.3,4.7-0.1l9.7,9.4c5,4.8,5,12.7,0.1,17.6l-1.6,1.5c-5,4.9-13,4.8-18-0.1l-9-8.8l-0.6-0.6
					c-1.3-1.3-1.3-3.3,0-4.6l1.2-1.2c1.3-1.3,3.5-1.4,4.8-0.1L763.9,64.1z"/>
	</g>
  </symbol>
</svg>
